1	2014_10_12_000000_create_users_table	1
2	2014_10_12_100000_create_password_resets_table	1
3	2019_02_25_193505_create_candidatos_table	1
4	2019_02_26_205906_create_cidades_table	1
5	2019_02_27_221417_create_e_medios_table	1
6	2019_02_27_221751_create_e_fundamentals_table	1
7	2019_05_18_202539_create_questaos_table	1
8	2019_05_23_123259_create_resultados_table	1
9	2019_05_23_123541_add_resultados_to_candidatos_table	1
