1	A	ler sobre eletricidade	A
2	B	ler sobre física nuclear	A
3	A	observar planetas no telescópio	A
4	B	observar célula no microscópio	A
5	A	ler sobre a fabricação de tintas	A
6	B	ler sobre métodos de calcular	A
7	A	obter uma bolsa para estudar química	A
8	B	obter uma bolsa para estudar educação	A
9	A	fazer o projeto de um viaduto	A
10	B	traduzir um romance	A
11	A	fazer experiências num laboratório de física	A
12	B	fazer modelagem e desenho	A
13	A	ler sobre mecânica	A
14	B	ler sobre física quântica	A
15	A	estudar os ossos e músculos do corpo humano	A
16	B	conhecer o mecanismo das máquinas em geral	A
17	A	resolver quebra-cabeças matemáticos	A
18	B	resolver quebra-cabeças com objetos	A
19	A	visitar um orfanato	A
20	B	visitar um museu de ciência	A
21	A	ler obras de escritores famosos	A
22	B	conhecer trabalhos de físicos famosos	A
23	A	visitar uma galeria de arte	A
24	B	conhecer um novo aparelho de laboratório	A
25	A	conhecer as leis da genética	B
26	B	conhecer o funcionamento de um motor	B
27	A	visitar um laboratório de microbiologia	B
28	B	ir a uma exposição de produtos 	B
29	A	estudar a respiração dos peixes	B
30	B	aprender a trabalhar com máquinas de calcular	B
31	A	analisar as propriedades terapêuticas das frutas	B
32	B	fazer um estudo sobre desemprego	B
33	A	ler sobre a reprodução das aves	B
34	B	ler sobre literatura	B
35	A	fazer experiências com plantas	B
36	B	fazer decoração e paisagismo	B
37	A	estudar a composição da atmosfera	B
38	B	estudar o DNA	B
39	A	ir a um laboratório de análises clínicas	B
40	B	assistir a uma palestra sobre imunologia	B
41	A	determinar o custo de uma nova máquina	B
42	B	pesquisar a cura da Aids	B
43	A	estudar a causa da delinquência juvenil	B
44	B	observar o comportamento dos animais	B
45	A	obter uma bolsa de literatura	B
46	B	obter uma bolsa de biologia	B
47	A	ler a seção de variedades de um jornal	B
48	B	ler sobre a importância das vitaminas	B
49	A	visitar um asilo de velhos	C
50	B	visitar uma usina nuclear	C
51	A	estudar o problema do menor abonado	C
52	B	observar o comportamento dos insetos	C
53	A	entrevistar famílias sobre educação dos filhos	C
54	B	organizar e tabular pesquisas	C
55	A	ajudar a resolver problemas de crianças	C
56	B	ajudar famílias de migrantes a se adaptar	C
57	A	ser voluntário em programas de adoção de menores	C
58	B	participar de cursos de redação	C
59	A	ler sobre a produção de drogas	C
60	B	ler sobre arte clássica	C
61	A	obter uma bolsa de estatística	C
62	B	obter uma bolsa de pedagogia	C
63	A	analisar a composição dos alimentos	C
64	B	analisar as causas do desemprego	C
65	A	calcular o aumento do custo de vida	C
66	B	estudar a condição social do trabalhador	C
67	A	ajudar a combater a mendicância	C
68	B	ajudar na educação de favelados 	C
69	A	estudar informática	C
70	B	estudar novo método para erradicar o analfabetismo	C
71	A	desenhar modelos de roupas	C
72	B	ensinar crianças a se orientar no trânsito	C
73	A	ler obras de romancistas consagrados	D
74	B	conhecer trabalhos de prêmios Nobel de física	D
75	A	estudar a história da pintura	D
76	B	estudar a história da ciência	D
77	A	pertencer a um grupo literário	D
78	B	pertencer a um grupo da internet especializado em finanças	D
79	A	aprender um idioma estrangeiro	D
80	B	aprender um novo sistema de catalogar animais	D
81	A	fazer um curso de literatura moderno	D
82	B	assistir a um curso de gramática	D
83	A	escrever uma peça teatral	D
84	B	trabalhar numa peça	D
85	A	projetar uma estrada	D
86	B	recitar poemas	D
87	A	ler sobre protozoários	D
88	B	ler sobre poesia	D
89	A	escrever uma tese de química	D
90	B	escrever uma novela	D
91	A	participar de programas de recuperação de drogados	D
92	B	participar de um curso de arte	D
93	A	estudar regras de estilo e oratória	D
94	B	estudar literatura e interpretação de texto	D
95	A	criar modelos de cartões-postais	D
96	B	criar frases originais para esses cartões	D
97	A	visitar uma exposição de escultura	E
98	B	conhecer um novo tipo de fax	E
99	A	ler sobre cinema e teatro	E
100	B	ler sobre avanços tecnológicos	E
101	A	colecionar reproduções de pintura	E
102	B	colecionar gráficos da inflação	E
103	A	criar designs de objetos	E
104	B	criar campanhas de trânsito	E
105	A	bolar um novo tipo de cenografia para dança	E
106	B	bolar uma nova iluminação para palco	E
107	A	inventar estampas para tecido	E
108	B	criar desenhos para histórias em quadrinhos	E
109	A	fazer experiências num laboratório de química	E
110	B	fazer desenhos e gravura	E
111	A	testar a resistência dos materiais	E
112	B	fazer decoração de ambientes	E
113	A	trabalhar com computador	E
114	B	desenhar os móveis de uma casa	E
115	A	ler sobre o efeito estufa	E
116	B	ler sobre a história da música	E
117	A	redigir um roteiro de cinema	E
118	B	trabalhar num filme	E
119	A	criar desenhos para embalagens de produtos	E
120	B	criar ilustrações para artigos da imprensa	E
